%YAML 1.1
%TAG !u! tag:unity3d.com,2011:
--- !u!74 &7400000
AnimationClip:
  m_ObjectHideFlags: 0
  m_CorrespondingSourceObject: {fileID: 0}
  m_PrefabInstance: {fileID: 0}
  m_PrefabAsset: {fileID: 0}
  m_Name: roll
  serializedVersion: 6
  m_Legacy: 0
  m_Compressed: 0
  m_UseHighQualityCurve: 1
  m_RotationCurves: []
  m_CompressedRotationCurves: []
  m_EulerCurves: []
  m_PositionCurves: []
  m_ScaleCurves: []
  m_FloatCurves: []
  m_PPtrCurves:
  - curve:
    - time: 0
      value: {fileID: 21300000, guid: 761a7a8188eca024788fe0c3c290be68, type: 3}
    - time: 0.016666668
      value: {fileID: 21300000, guid: cea81a78aee06c24b91463ca604236ba, type: 3}
    - time: 0.033333335
      value: {fileID: 21300000, guid: ee1f0b53b9e7dff4bbe17e39945c17ed, type: 3}
    - time: 0.05
      value: {fileID: 21300000, guid: 5f42af7acabf57340b8b09c5087e17d7, type: 3}
    - time: 0.06666667
      value: {fileID: 21300000, guid: 3db71c0c5d342984c9318e0ebd1a6b1e, type: 3}
    - time: 0.083333336
      value: {fileID: 21300000, guid: d636433e21896b64aa22a3cc44324cb2, type: 3}
    - time: 0.1
      value: {fileID: 21300000, guid: 17d78463b89ae9b4f8318849d40b16e0, type: 3}
    - time: 0.11666667
      value: {fileID: 21300000, guid: 8b2dbc7d8d0bbf04988d6d4d2b855481, type: 3}
    - time: 0.13333334
      value: {fileID: 21300000, guid: 59078621001372f49a12ab0d4ff5b43d, type: 3}
    - time: 0.15
      value: {fileID: 21300000, guid: f25987ca67d31ab40acb556c8faa7d1f, type: 3}
    - time: 0.16666667
      value: {fileID: 21300000, guid: 58274d5f63eb05740b9247bca45d3cea, type: 3}
    - time: 0.18333334
      value: {fileID: 21300000, guid: 13e98f5b5f8cc4b4e90fa01a7593953b, type: 3}
    - time: 0.2
      value: {fileID: 21300000, guid: 761a7a8188eca024788fe0c3c290be68, type: 3}
    attribute: m_Sprite
    path: 
    classID: 212
    script: {fileID: 0}
  m_SampleRate: 60
  m_WrapMode: 0
  m_Bounds:
    m_Center: {x: 0, y: 0, z: 0}
    m_Extent: {x: 0, y: 0, z: 0}
  m_ClipBindingConstant:
    genericBindings:
    - serializedVersion: 2
      path: 0
      attribute: 0
      script: {fileID: 0}
      typeID: 212
      customType: 23
      isPPtrCurve: 1
    pptrCurveMapping:
    - {fileID: 21300000, guid: 761a7a8188eca024788fe0c3c290be68, type: 3}
    - {fileID: 21300000, guid: cea81a78aee06c24b91463ca604236ba, type: 3}
    - {fileID: 21300000, guid: ee1f0b53b9e7dff4bbe17e39945c17ed, type: 3}
    - {fileID: 21300000, guid: 5f42af7acabf57340b8b09c5087e17d7, type: 3}
    - {fileID: 21300000, guid: 3db71c0c5d342984c9318e0ebd1a6b1e, type: 3}
    - {fileID: 21300000, guid: d636433e21896b64aa22a3cc44324cb2, type: 3}
    - {fileID: 21300000, guid: 17d78463b89ae9b4f8318849d40b16e0, type: 3}
    - {fileID: 21300000, guid: 8b2dbc7d8d0bbf04988d6d4d2b855481, type: 3}
    - {fileID: 21300000, guid: 59078621001372f49a12ab0d4ff5b43d, type: 3}
    - {fileID: 21300000, guid: f25987ca67d31ab40acb556c8faa7d1f, type: 3}
    - {fileID: 21300000, guid: 58274d5f63eb05740b9247bca45d3cea, type: 3}
    - {fileID: 21300000, guid: 13e98f5b5f8cc4b4e90fa01a7593953b, type: 3}
    - {fileID: 21300000, guid: 761a7a8188eca024788fe0c3c290be68, type: 3}
  m_AnimationClipSettings:
    serializedVersion: 2
    m_AdditiveReferencePoseClip: {fileID: 0}
    m_AdditiveReferencePoseTime: 0
    m_StartTime: 0
    m_StopTime: 0.21666667
    m_OrientationOffsetY: 0
    m_Level: 0
    m_CycleOffset: 0
    m_HasAdditiveReferencePose: 0
    m_LoopTime: 1
    m_LoopBlend: 0
    m_LoopBlendOrientation: 0
    m_LoopBlendPositionY: 0
    m_LoopBlendPositionXZ: 0
    m_KeepOriginalOrientation: 0
    m_KeepOriginalPositionY: 1
    m_KeepOriginalPositionXZ: 0
    m_HeightFromFeet: 0
    m_Mirror: 0
  m_EditorCurves: []
  m_EulerEditorCurves: []
  m_HasGenericRootTransform: 0
  m_HasMotionFloatCurves: 0
  m_Events: []
